RBsSECACC5yr • recruitR
…
sec_rbs <- sec_positions %>% 
  dplyr::filter(position_group == "Running Back") %>% 
  dplyr::arrange(desc(avg_stars))
acc_rbs <- acc_positions %>% 
  dplyr::filter(position_group == "Running Back") %>% 
  dplyr::arrange(desc(avg_stars))

rbs <- dplyr::bind_rows(sec_rbs,acc_rbs)
print(rbs)

## ── Recruiting position group info from CollegeFootballData.com ─────────────────

## ℹ Data updated: 2026-06-13 03:16:28 UTC

## # A tibble: 28 × 7
##    team      conference position_group avg_rating total_rating commits avg_stars
##    <chr>     <chr>      <chr>               <dbl>        <dbl>   <dbl>     <dbl>
##  1 Georgia   SEC        Running Back        0.943         7.54       8      4.12
##  2 Alabama   SEC        Running Back        0.919        13.8       15      3.8 
##  3 Mississi… SEC        Running Back        0.903         3.61       4      3.75
##  4 Auburn    SEC        Running Back        0.903         9.93      11      3.73
##  5 LSU       SEC        Running Back        0.907         9.98      11      3.64
##  6 Ole Miss  SEC        Running Back        0.901         7.20       8      3.62
##  7 Florida   SEC        Running Back        0.902         6.32       7      3.57
##  8 Texas A&M SEC        Running Back        0.891         9.80      11      3.45
##  9 Arkansas  SEC        Running Back        0.885         4.42       5      3.4 
## 10 Kentucky  SEC        Running Back        0.875         3.50       4      3.25
## # ℹ 18 more rows
…
